Visualising Top 10 Sectors affected by Data Breaches (2010–2024)
…
Warning: There was 1 warning in `mutate()`.
ℹ In argument: `year = as.numeric(year)`.
Caused by warning:
! NAs introduced by coercion

data

# A tibble: 460 × 17
   organisation       `alternative name` `records lost`  year date  story sector
   <chr>              <chr>              <chr>          <dbl> <chr> <chr> <chr> 
 1 AT&T               <NA>               73,000,000      2024 Apr … Sens… telec…
 2 Irish towing comp… <NA>               512,000         2023 Oct … The … trans…
 3 Maine Government   <NA>               1,300,000       2023 May … Russ… gover…
 4 Welltok            <NA>               8,500,000       2023 Nov … Pati… health
 5 Maximus            <NA>               10,000,000      2023 Jul … Expl… gover…
 6 Okta               <NA>               134             2023 Nov … Name… tech  
 7 Delta Dental       <NA>               7,000,000       2023 May … The … health
 8 Xfinity            <NA>               36,000,000      2023 Oct … Hack… telec…
 9 Atlassian          <NA>               13,200          2023 Feb … Sieg… tech  
10 Reddit             <NA>               100,000         2023 Feb … A ph… web   
# ℹ 450 more rows
# ℹ 10 more variables: method <chr>, `interesting story` <chr>,
#   `data sensitivity` <chr>, `displayed records` <chr>, ...12 <lgl>,
#   `source name` <chr>, `1st source link` <chr>, `2nd source link` <chr>,
#   ID <dbl>, records.lost <dbl>
…
      grepl("tech", sector, ignore.case = TRUE) ~ "Tech",
      grepl("government", sector, ignore.case = TRUE) ~ "Government",
      grepl("telecoms", sector, ignore.case = TRUE) ~ "Telecoms",
      grepl("legal", sector, ignore.case = TRUE) ~ "Legal",
      grepl("media", sector, ignore.case = TRUE) ~ "Media",
      grepl("academic", sector, ignore.case = TRUE) ~ "Academic",
      grepl("energy", sector, ignore.case = TRUE) ~ "Energy",
      grepl("military", sector, ignore.case = TRUE) ~ "Military",
      TRUE ~ "Miscellaneous"
    )
  ) %>%
  drop_na(records.lost, year, sector_group)
data

# A tibble: 460 × 18
   organisation       `alternative name` `records lost`  year date  story sector
   <chr>              <chr>              <chr>          <dbl> <chr> <chr> <chr> 
 1 AT&T               <NA>               73,000,000      2024 Apr … Sens… telec…
 2 Irish towing comp… <NA>               512,000         2023 Oct … The … trans…
 3 Maine Government   <NA>               1,300,000       2023 May … Russ… gover…
 4 Welltok            <NA>               8,500,000       2023 Nov … Pati… health
 5 Maximus            <NA>               10,000,000      2023 Jul … Expl… gover…
 6 Okta               <NA>               134             2023 Nov … Name… tech  
 7 Delta Dental       <NA>               7,000,000       2023 May … The … health
 8 Xfinity            <NA>               36,000,000      2023 Oct … Hack… telec…
 9 Atlassian          <NA>               13,200          2023 Feb … Sieg… tech  
10 Reddit             <NA>               100,000         2023 Feb … A ph… web   
# ℹ 450 more rows
# ℹ 11 more variables: method <chr>, `interesting story` <chr>,
#   `data sensitivity` <chr>, `displayed records` <chr>, ...12 <lgl>,
#   `source name` <chr>, `1st source link` <chr>, `2nd source link` <chr>,
#   ID <dbl>, records.lost <dbl>, sector_group <chr>
…
# Calculate total records lost for each sector group and select top 10 sectors
top_sectors <- data %>%
  group_by(sector_group) %>%
  summarize(total_records_lost = sum(records.lost)) %>%
  arrange(desc(total_records_lost)) %>%
  top_n(10, wt = total_records_lost) %>%
  pull(sector_group)

# Filter the data to include only top 10 sectors
data <- data %>%
  filter(sector_group %in% top_sectors)
data

# A tibble: 393 × 18
   organisation       `alternative name` `records lost`  year date  story sector
   <chr>              <chr>              <chr>          <dbl> <chr> <chr> <chr> 
 1 AT&T               <NA>               73,000,000      2024 Apr … Sens… telec…
 2 Irish towing comp… <NA>               512,000         2023 Oct … The … trans…
 3 Maine Government   <NA>               1,300,000       2023 May … Russ… gover…
 4 Welltok            <NA>               8,500,000       2023 Nov … Pati… health
 5 Maximus            <NA>               10,000,000      2023 Jul … Expl… gover…
 6 Okta               <NA>               134             2023 Nov … Name… tech  
 7 Delta Dental       <NA>               7,000,000       2023 May … The … health
 8 Xfinity            <NA>               36,000,000      2023 Oct … Hack… telec…
 9 Atlassian          <NA>               13,200          2023 Feb … Sieg… tech  
10 Reddit             <NA>               100,000         2023 Feb … A ph… web   
# ℹ 383 more rows
# ℹ 11 more variables: method <chr>, `interesting story` <chr>,
#   `data sensitivity` <chr>, `displayed records` <chr>, ...12 <lgl>,
#   `source name` <chr>, `1st source link` <chr>, `2nd source link` <chr>,
#   ID <dbl>, records.lost <dbl>, sector_group <chr>
…
# Define important sectors to highlight
highlight_sectors <- c("Web", "Financial", "App", "Transport")

# Add a new column to specify color based on sector importance
data <- data %>%
  mutate(
    highlight = ifelse(as.character(sector_group) %in% highlight_sectors, as.character(sector_group), "Other")
  )

# Convert sector_group to a factor and then to numeric for plotting
data$sector_group_num <- as.numeric(factor(data$sector_group))

data

# A tibble: 393 × 22
   organisation       `alternative name` `records lost`  year date  story sector
   <chr>              <chr>              <chr>          <dbl> <chr> <chr> <chr> 
 1 AT&T               <NA>               73,000,000      2024 Apr … Sens… telec…
 2 Irish towing comp… <NA>               512,000         2023 Oct … The … trans…
 3 Maine Government   <NA>               1,300,000       2023 May … Russ… gover…
 4 Welltok            <NA>               8,500,000       2023 Nov … Pati… health
 5 Maximus            <NA>               10,000,000      2023 Jul … Expl… gover…
 6 Okta               <NA>               134             2023 Nov … Name… tech  
 7 Delta Dental       <NA>               7,000,000       2023 May … The … health
 8 Xfinity            <NA>               36,000,000      2023 Oct … Hack… telec…
 9 Atlassian          <NA>               13,200          2023 Feb … Sieg… tech  
10 Reddit             <NA>               100,000         2023 Feb … A ph… web   
# ℹ 383 more rows
# ℹ 15 more variables: method <chr>, `interesting story` <chr>,
#   `data sensitivity` <chr>, `displayed records` <chr>, ...12 <lgl>,
#   `source name` <chr>, `1st source link` <chr>, `2nd source link` <chr>,
#   ID <dbl>, records.lost <dbl>, sector_group <fct>, StartDate <date>,
#   EndDate <date>, highlight <chr>, sector_group_num <dbl>
…
